com/meg4r0m/filRouge/Servlets/ClientsList.class
com/meg4r0m/filRouge/Servlets/ClientCreate.class
com/meg4r0m/filRouge/Servlets/CommandCreate.class
com/meg4r0m/filRouge/Beans/Commands.class
com/meg4r0m/filRouge/Beans/Client.class
com/meg4r0m/filRouge/Forms/CommandCreateForm.class
com/meg4r0m/filRouge/Servlets/CommandsList.class
com/meg4r0m/filRouge/Forms/ClientCreateForm.class
com/meg4r0m/filRouge/Servlets/CommandDelete.class
com/meg4r0m/filRouge/Servlets/ClientDelete.class
